<?xml version="1.0" encoding="UTF-8"?>
<svg viewBox="0 0 224.09695 256.04416" xmlns="http://www.w3.org/2000/svg">
 <g class="Slide" transform="matrix(.03672 0 0 .03672 -73.379 -73.379)">
  <g class="Group">
   <g class="Drawing">
    <g fill="#c5000b">
     <path d="m2e3 8099v-5350l749-749h4740v5349l-750 750h-4739zm0-6099zm5489 6099z"/>
    </g>
    <g fill="none" stroke="#fff">
     <path d="m2e3 8099v-5350l749-749h4740v5349l-750 750h-4739"/>
     <path d="m2e3 2e3"/>
     <path d="m7489 8099"/>
    </g>
    <g fill="#d12a33">
     <path d="m2e3 2749 749-749h4740l-750 749h-4739zm0-749zm5489 6099z"/>
    </g>
    <g fill="none" stroke="#fff">
     <path d="m2e3 2749 749-749h4740l-750 749h-4739"/>
     <path d="m2e3 2e3"/>
     <path d="m7489 8099"/>
    </g>
    <g fill="#9e0009">
     <path d="m6739 8099v-5350l750-749v5349l-750 750zm-4739-6099zm5489 6099z"/>
    </g>
    <g fill="none" stroke="#fff">
     <path d="m6739 8099v-5350l750-749v5349l-750 750"/>
     <path d="m2e3 2e3"/>
     <path d="m7489 8099"/>
    </g>
    <g fill="none">
     <path d="m2e3 2e3h5489v6099h-5489z"/>
    </g>
   </g>
   <g class="Graphic">
    <g fill="#e73900">
     <path d="m4723 8309c-1029-1580 213-1721-103-3884 777 1020 994 2272 1320 2642 225 291 336 642 306 1002-3 286 358 632 259 898-524-420-1426-146-1782-658z"/>
    </g>
    <g fill="none">
     <path d="m4723 8309c-1029-1580 213-1721-103-3884 777 1020 994 2272 1320 2642 225 291 336 642 306 1002-3 286 358 632 259 898-524-420-1426-146-1782-658z"/>
    </g>
    <g fill="#e73900">
     <path d="m6279 8771c6-303-360-434-507-671-244-180-321-461-327-738-20-442 375-3081 949-3789-220 1088 327 2537 664 3017 229 372 315 801 232 1223-40 337-319 539-470 841-151 182-356 199-541 117z"/>
    </g>
    <g fill="none">
     <path d="m6279 8771c6-303-360-434-507-671-244-180-321-461-327-738-20-442 375-3081 949-3789-220 1088 327 2537 664 3017 229 372 315 801 232 1223-40 337-319 539-470 841-151 182-356 199-541 117z"/>
    </g>
    <g fill="#e73900">
     <path d="m6487 8919c88-263-85-680-140-924-148-219-133-485-62-727 105-392 122-2241 1816-3109-1314 1290-441 2338-299 2842 83 384 40 784-147 1129-259 475-949 738-1168 789z"/>
    </g>
    <g fill="none">
     <path d="m6487 8919c88-263-85-680-140-924-148-219-133-485-62-727 105-392 122-2241 1816-3109-1314 1290-441 2338-299 2842 83 384 40 784-147 1129-259 475-949 738-1168 789z"/>
    </g>
    <g fill="#e78c00">
     <path d="m6209 8765c4-248-273-355-384-547-185-148-243-377-247-603-15-362 353-2272 648-3094-201 1864 316 2072 572 2463 173 304 238 654 175 999-30 275-162 525-276 772-114 149-349 77-488 10z"/>
    </g>
    <g fill="none">
     <path d="m6209 8765c4-248-273-355-384-547-185-148-243-377-247-603-15-362 353-2272 648-3094-201 1864 316 2072 572 2463 173 304 238 654 175 999-30 275-162 525-276 772-114 149-349 77-488 10z"/>
    </g>
    <g fill="#e78c00">
     <path d="m5147 8411c-1057-1086 95-1162-199-2652 349 702 637 1230 764 1729 187 176 835 1252 797 1447-409-233-1058-212-1362-524z"/>
    </g>
    <g fill="none">
     <path d="m5147 8411c-1057-1086 95-1162-199-2652 349 702 637 1230 764 1729 187 176 835 1252 797 1447-409-233-1058-212-1362-524z"/>
    </g>
    <g fill="#e7e100">
     <path d="m5358 8345c-632-600-160-953-166-1703 175 657 728 819 721 1213 91 118 569 959 529 1067-212-171-845-349-1084-577z"/>
    </g>
    <g fill="none">
     <path d="m5358 8345c-632-600-160-953-166-1703 175 657 728 819 721 1213 91 118 569 959 529 1067-212-171-845-349-1084-577z"/>
    </g>
    <g fill="#e78c00">
     <path d="m6374 8264c-111-164-100-364-47-546 79-294 425-1927 919-2282-357 671 113 1704 219 2083 63 287 80 628-109 846-287 330-649 522-852 568-129 90-89-486-130-669z"/>
    </g>
    <g fill="none">
     <path d="m6374 8264c-111-164-100-364-47-546 79-294 425-1927 919-2282-357 671 113 1704 219 2083 63 287 80 628-109 846-287 330-649 522-852 568-129 90-89-486-130-669z"/>
    </g>
    <g fill="#e7e100">
     <path d="m6196 8783c8-151-159-224-222-345-109-95-139-237-136-375 0-222-8-1603 273-1946-124 539 343 1344 490 1590 98 191 129 407 82 616-25 168-112 318-188 466-74 88-216 39-299-6z"/>
    </g>
    <g fill="none">
     <path d="m6196 8783c8-151-159-224-222-345-109-95-139-237-136-375 0-222-8-1603 273-1946-124 539 343 1344 490 1590 98 191 129 407 82 616-25 168-112 318-188 466-74 88-216 39-299-6z"/>
    </g>
    <g fill="#e7e100">
     <path d="m6329 8802c72-105-17-230-11-345-37-115 2-231 64-329 96-160 264-1349 615-1475-323 336 238 1233 238 1474-12 180-231 423-355 554-91 110-271 216-390 290-91-55-120-100-161-169z"/>
    </g>
    <g fill="none">
     <path d="m6329 8802c72-105-17-230-11-345-37-115 2-231 64-329 96-160 264-1349 615-1475-323 336 238 1233 238 1474-12 180-231 423-355 554-91 110-271 216-390 290-91-55-120-100-161-169z"/>
    </g>
    <g fill="#ffff9e">
     <path d="m6208 8682c-223-352-141-745-46-1173 44 291 224 643 326 759 70 91 104 200 95 313-1 89-46 197-77 280-164-131-187-20-298-179z"/>
    </g>
    <g fill="none">
     <path d="m6208 8682c-223-352-141-745-46-1173 44 291 224 643 326 759 70 91 104 200 95 313-1 89-46 197-77 280-164-131-187-20-298-179z"/>
    </g>
    <g fill="#ffff9e">
     <path d="m6459 8507c173-379 2-677 398-975-118 276 152 711 123 862-50 254-392 443-478 462 21-208-116-169-43-349z"/>
    </g>
    <g fill="none">
     <path d="m6459 8507c173-379 2-677 398-975-118 276 152 711 123 862-50 254-392 443-478 462 21-208-116-169-43-349z"/>
    </g>
    <g fill="#ffff9e">
     <path d="m5224 7266c930 1177 909 583 1278 1590-1758-783-969-712-1278-1590z"/>
    </g>
    <g fill="none">
     <path d="m5224 7266c930 1177 909 583 1278 1590-1758-783-969-712-1278-1590z"/>
    </g>
   </g>
  </g>
 </g>
</svg>
