<?xml version="1.0" encoding="UTF-8"?>
<svg viewBox="0 0 500 500" xmlns="http://www.w3.org/2000/svg">
 <g transform="translate(0 -552.36)">
  <path transform="translate(0 552.36)" d="m253.06 17.219c-128.72 0-233.06 104.43-233.06 233.12s104.34 233 233.06 233 233.06-104.31 233.06-233-104.34-233.12-233.06-233.12zm-3.0938 181.78c29.652 0 53.688 23.981 53.688 53.531s-24.036 53.5-53.688 53.5-53.688-23.95-53.688-53.5 24.036-53.531 53.688-53.531z" fill-rule="evenodd"/>
  <path transform="translate(0 552.36)" d="m7.75 0c-4.2983 0-7.75 3.4352-7.75 7.7188v484.56c0 4.2836 3.4517 7.7188 7.75 7.7188h181.94c-2.4e-4 -0.021 0-0.0415 0-0.0625 0-3.37 3.105-6.0938 6.9375-6.0938s6.9375 2.7238 6.9375 6.0938c0 0.021 2.4e-4 0.0415 0 0.0625h90.062c-2.4e-4 -0.021 0-0.0415 0-0.0625 0-3.37 3.105-6.0938 6.9375-6.0938s6.9375 2.7238 6.9375 6.0938c0 0.021 2.4e-4 0.0415 0 0.0625h184.75c4.2983 0 7.75-3.4352 7.75-7.7188v-353.59h-13.375c-0.95517 0-1.75-0.76685-1.75-1.7188v-18.875c0-0.9519 0.79483-1.7188 1.75-1.7188h13.375v-108.66c0-4.2836-3.4517-7.7188-7.75-7.7188h-484.5zm242.22 176.12c42.331 0 76.625 34.221 76.625 76.406s-34.294 76.375-76.625 76.375-76.656-34.189-76.656-76.375 34.326-76.406 76.656-76.406zm95.219 85.125c6.1214 0 11.094 4.9621 11.094 11.062s-4.9724 11.031-11.094 11.031-11.094-4.9308-11.094-11.031 4.9724-11.062 11.094-11.062zm-95.812 93.125c13.816 0 24.938 11.349 24.938 25.438v73.406c0 14.088-11.122 25.438-24.938 25.438s-24.938-11.349-24.938-25.438v-73.406c0-14.088 11.122-25.438 24.938-25.438z" fill="#666"/>
  <path d="m31 572.36h224a8 8 0 0 1 8 8v104a8 8 0 0 1 -8 8h-224a8 8 0 0 1 -8 -8v-104a8 8 0 0 1 8 -8" fill="#fff"/>
 </g>
</svg>
