<?xml version="1.0" encoding="UTF-8"?>
<svg viewBox="0 0 320 320" xmlns="http://www.w3.org/2000/svg" xmlns:xlink="http://www.w3.org/1999/xlink">
 <defs>
  <linearGradient id="i" x1=".50588" x2=".51373" y1="1.375" y2=".07692">
   <stop stop-color="#fff" stop-opacity=".57576" offset="0"/>
   <stop stop-color="#fff" stop-opacity="0" offset="1"/>
  </linearGradient>
  <linearGradient id="l" x1="-.69787" x2="1.1404" y1="-1.3462" y2=".14615">
   <stop stop-color="#fff" offset="0"/>
   <stop stop-color="#fff" stop-opacity="0" offset="1"/>
  </linearGradient>
  <linearGradient id="j" x1="1.0314" x2=".58431" y1="2.4048" y2="-.16667">
   <stop stop-color="#565248" offset="0"/>
   <stop stop-color="#eae8e3" offset="1"/>
  </linearGradient>
  <linearGradient id="k" x1=".72432" x2=".50811" y1=".84615" y2="-.41538">
   <stop stop-color="#7590ae" offset="0"/>
   <stop stop-color="#314e6c" offset="1"/>
  </linearGradient>
  <linearGradient id="a">
   <stop stop-color="#7f7f7f" offset="0"/>
   <stop stop-color="#fffdf8" offset="1"/>
  </linearGradient>
  <linearGradient id="c">
   <stop stop-opacity=".53103" offset="0"/>
   <stop stop-opacity=".07345" offset=".64778"/>
   <stop stop-opacity="0" offset="1"/>
  </linearGradient>
  <linearGradient id="e" x1=".66275" x2=".68235" y1=".30769" y2="-1.641" xlink:href="#c"/>
  <linearGradient id="h" x1="-.12941" x2="1.0498" y1="-1.1713" y2="1.3742" xlink:href="#a"/>
  <linearGradient id="f" x1="1.3018" x2=".33333" y1="2.5078" y2="-.26531" xlink:href="#a"/>
  <linearGradient id="g" x1=".50196" x2=".48235" y1="-.32051" y2="1.5128" xlink:href="#a"/>
  <radialGradient id="d" fx=".51373" fy=".31579">
   <stop stop-opacity=".37241" offset="0"/>
   <stop stop-opacity=".11034" offset=".5"/>
   <stop stop-color="#adadad" stop-opacity="0" offset="1"/>
  </radialGradient>
  <radialGradient id="b" cx=".49032" cy=".50649" r=".46014" fx=".50978" fy=".15801" xlink:href="#c"/>
 </defs>
 <path transform="matrix(-1.224 0 0 .13821 -195.55 208.48)" d="m-163.89 598.37a125.21 125.21 0 1 0 -250.41 0 125.21 125.21 0 1 0 250.41 0z" fill="url(#d)" fill-rule="evenodd"/>
 <g transform="matrix(1.9124 0 0 1.9124 7.5858 16.303)">
  <path transform="matrix(.59927 0 0 .42081 106.05 53.712)" d="m82.055 175.84a56.143 56.143 0 1 0 -112.29 0 56.143 56.143 0 1 0 112.29 0z" fill="url(#b)" fill-rule="evenodd"/>
  <path d="m131.67 18.764-107.04 1.3376 0.63694 75.956 9.4905-0.38217 0.03185 0.47771-10 0.09554 0.28662 4.9682-22.102 28.089-1.1465 3.9809v6.6561c0 1.803 2.2635 3.1021 3.8217 3.0892l149.81-1.242c1.6643-0.01376 3.4477-2.4829 3.2484-4.3949l-0.5414-5.1911-3.2484-4.3949-21.815-27.102-0.12739-5.4777h-1.3694l0.06369-76.465zm-65.191 76.401v0.70064l-5.7962 0.03185 0.03185-0.28663 5.7643-0.44586zm55.828 0 2.8662 0.12739-2.8662 0.03185v-0.15924z" fill="#fff" fill-rule="evenodd"/>
  <path transform="matrix(.78095 0 0 .42081 23.361 53.712)" d="m82.055 175.84a56.143 56.143 0 1 0 -112.29 0 56.143 56.143 0 1 0 112.29 0z" fill="url(#b)" fill-rule="evenodd"/>
  <path d="m24.899 96.203 0.30324 4.9657-22.118 28.094-1.1489 3.988v6.6467c0 1.803 2.2714 3.1147 3.8295 3.1018l149.82-1.2395c1.6643-0.01377 3.4487-2.4746 3.2495-4.3866l-0.54157-5.1968-3.2495-4.3866-21.831-27.103-0.10449-5.4828-108.21 0.99913z" fill="url(#g)" fill-rule="evenodd" stroke="#000" stroke-opacity=".21384" stroke-width="1.25"/>
  <path d="m25.38 96.03-0.62665-75.956 107.03-1.3293-0.05376 76.842-9.3053-0.44311v5.3173l-55.832-0.44311v-4.8742l-5.7604 0.44311-0.44311 4.8742h-25.257l-0.25957-4.8205-9.4889 0.38936z" fill="url(#f)" fill-rule="evenodd" stroke="#000" stroke-opacity=".37736" stroke-width=".30781"/>
  <path d="m34.418 29.033 0.55257 60.4 86.35-0.39072-0.39073-60.562-86.512 0.55257z" fill="url(#k)" fill-rule="evenodd" stroke="url(#h)" stroke-width=".67957"/>
  <path d="m29.522 102.15-14.2 19.999c-2.8506 4.0148 0.55166 5.0212 2.1663 5.0132l127.81-0.62666c1.1417-0.0056 4.1532 0.34034 1.0832-3.7599l-15.152-20.236-101.71-0.38935z" fill="url(#j)" fill-rule="evenodd"/>
  <path d="m57.402 126.83 4.2641-13.486h36.387l4.5484 13.157-45.199 0.32892z" fill="url(#e)" fill-rule="evenodd"/>
  <path d="m29.169 101.88-7.0164 9.5765 116.82 0.28872-8.2085-10.335-101.59 0.46999z" fill="#56544e" fill-rule="evenodd"/>
  <path d="m3.4681 131.61 152.8-0.44312" fill="none" stroke="#fff" stroke-linecap="round" stroke-linejoin="round" stroke-opacity=".26415" stroke-width="2.5038"/>
  <path d="m38.411 76.918s5.7556-19.715 36.921-12.644c30.093 6.8278 33.886-20.736 41.979-21.242v43.496l-79.405 0.50577 0.50577-10.115z" fill="url(#l)" fill-rule="evenodd"/>
  <path d="m59.435 95.139-23.316 1.1158 0.18288 3.5398 23.133-0.21162v-4.444zm61.42 0.23086-54.058 0.44247 0.19952 3.9823 54.44 0.23086-0.58192-4.6556z" fill="url(#i)" fill-rule="evenodd"/>
 </g>
</svg>
